{"miPersonas":
	[
		{"identificacion":"1001","nombre":"Immanuel Kant"},
		{"identificacion":"1002","nombre":"Friedrich Schelling"},
		{"identificacion":"1003","nombre":"Karl Marx"},
		{"identificacion":"1004","nombre":"Jean-Paul Sartre"},
		{"identificacion":"1005","nombre":"Arthur Schopenhauer"},
		{"identificacion":"1006","nombre":"Albert Einstein"},
		{"identificacion":"1007","nombre":"Isaac Newton"},
		{"identificacion":"1008","nombre":"Stephen Hawking"},
		{"identificacion":"1009","nombre":"Charles Darwin"},
		{"identificacion":"1010","nombre":"Galileo Galilei"},
		{"identificacion":"1011","nombre":"Marie Curie"},
		{"identificacion":"1012","nombre":"Nikola Tesla"},
		{"identificacion":"1013","nombre":"Leonardo Da Vinci"},
		{"identificacion":"1014","nombre":"Blaise Pascal"}
	]
}